Analyses of Hydrology-Induced Changes Drive Fish eDNA Ecology in a Neotropical Reservoir paper
…
write_csv(curated_full_tbl, 
      paste0(tbl_path, "/curated_full_tbl", "-",
             Sys.Date(), ".csv", sep = ""))

curated_full_tbl

# A tibble: 529 × 23
   `ASV header`   `ASV (Sequence)`                 `Curated ID` `Obs. Curadoria`
   <chr>          <chr>                            <chr>        <chr>           
 1 >ASV_471_167bp CACCGCGGTTATACGAGAGGCCCAAGTTGAC… Coptodon re… True detection  
 2 >ASV_471_167bp CACCGCGGTTATACGAGAGGCCCAAGTTGAC… Coptodon re… True detection  
 3 >ASV_472_167bp TTTCGCAGCTTTCGTGGGGTCGGAAATATAA… Coptodon re… True detection  
 4 >ASV_471_167bp CACCGCGGTTATACGAGAGGCCCAAGTTGAC… Coptodon re… True detection  
 5 >ASV_472_167bp TTTCGCAGCTTTCGTGGGGTCGGAAATATAA… Coptodon re… True detection  
 6 >ASV_472_167bp TTTCGCAGCTTTCGTGGGGTCGGAAATATAA… Coptodon re… True detection  
 7 >ASV_471_167bp CACCGCGGTTATACGAGAGGCCCAAGTTGAC… Coptodon re… True detection  
 8 >ASV_56_175bp  CACCGCGGTTACACGTGAAGGCTCAAGTTGA… Moenkhausia… True detection  
 9 >ASV_57_175bp  TTTCTCAGCTTTCGTGGATCGAGAGGTTCTA… Moenkhausia… True detection  
10 >ASV_473_167bp CACCGCGGTTATACGAGAGACCCCAGTTGAT… Hoplias int… True detection  
# ℹ 519 more rows
# ℹ 19 more variables: `Final ID (BLASTn)` <chr>, `BLASTn pseudo-score` <dbl>,
#   `Class (BLASTn)` <chr>, `Family (BLASTn)` <chr>, `Genus (BLASTn)` <chr>,
#   `Order (BLASTn)` <chr>, Sample <chr>, Unique_File_name <chr>, OTU <dbl>,
#   Abundance <dbl>, `Read origin` <chr>, `Primer expected length` <chr>,
#   `ASV Size (pb)` <dbl>, Run <chr>, Filter <chr>, Site <chr>,
#   Expedition <chr>, Year <chr>, Level <chr>
…
`summarise()` has grouped output by 'Curated ID', 'Final ID (BLASTn)',
'Sample'. You can override using the `.groups` argument.

# Exporting table for the paper
write.csv(filt_stats_IDs_samples, 
          paste0(tbl_path, "/filt_stats_summary", "-",
                 Sys.Date(), ".csv", sep = ""))

filt_stats_IDs_samples

# A tibble: 397 × 8
   `Curated ID`   `Final ID (BLASTn)`  Reads `RRA %` Sample Reasons Class Family
   <chr>          <chr>                <dbl>   <dbl> <chr>  <chr>   <chr> <chr> 
 1 Canis familia… Canis lupus famili…      1   100   EM113… "Class… Mamm… Canid…
 2 Coptodon rend… Tilapia rendalli    494025    95.8 L4_no… ""      Acti… Cichl…
 3 Coptodon rend… Tilapia rendalli     43716    88.1 L3_no… ""      Acti… Cichl…
 4 Synbranchus    Synbranchus sp.       2424    77.9 EM149… "Conta… Acti… Synbr…
 5 Coptodon rend… Tilapia rendalli    288365    77.7 L3_ou… ""      Acti… Cichl…
 6 Moenkhausia c… Moenkhausia costae  263677    73.8 L2_de… "Out o… Acti… Acest…
 7 Coptodon rend… Tilapia rendalli     47443    71.4 L1_no… ""      Acti… Cichl…
 8 Coptodon rend… Tilapia rendalli    127099    69   L2_no… "Out o… Acti… Cichl…
 9 Homo sapiens   Homo sapiens            21    65.6 L4_ja… "Class… Mamm… Homin…
10 Coptodon rend… Tilapia rendalli    342215    64.5 L2_ou… ""      Acti… Cichl…
# ℹ 387 more rows
…
# Exporting table for the paper
write.csv(wider_dt_all_resume, 
          paste0(tbl_path, "/wider_dt_all_resume", "-",
                 Sys.Date(), ".csv", sep = ""))

wider_dt_all_resume

# A tibble: 62 × 45
   Class       `Curated ID`  `Final ID (BLASTn)` `Total reads` `Total abundance`
   <chr>       <chr>         <chr>                       <dbl>             <dbl>
 1 Actinopteri Astyanax bim… Astyanax bimaculat…           153               153
 2 Actinopteri Astyanax lac… Astyanax lacustris          28025             28025
 3 Mammalia    Bos taurus    Bos taurus                   8168              8168
 4 Mammalia    Canis famili… Canis lupus famili…            76                76
 5 Mammalia    Capra hircus  Capra hircus                  168               168
 6 Mammalia    Cavia magna   Cavia magna                  1043              1043
 7 Actinopteri Characidae 1  Planaltina myersi              32                32
 8 Actinopteri Characidium … Characidium sp.                 8                 8
 9 Actinopteri Colossoma ma… Piaractus brachypo…             9                 9
10 Actinopteri Coptodon ren… Coptodon zillii                34           1600284
# ℹ 52 more rows
# ℹ 40 more variables: P1_High_2020_MCE_Reads <dbl>,
#   P1_High_2020_MCE_ASVs <int>, P1_High_2020_MCE_OTUs <int>,
#   P1_High_2020_MCE_RRA <dbl>, P2_High_2020_MCE_Reads <dbl>,
#   P2_High_2020_MCE_ASVs <int>, P2_High_2020_MCE_OTUs <int>,
#   P2_High_2020_MCE_RRA <dbl>, P1_Low_2021_MCE_Reads <dbl>,
#   P1_Low_2021_MCE_ASVs <int>, P1_Low_2021_MCE_OTUs <int>, …
…
